\relax 
\providecommand\hyper@newdestlabel[2]{}
\providecommand\HyperFirstAtBeginDocument{\AtBeginDocument}
\HyperFirstAtBeginDocument{\ifx\hyper@anchor\@undefined
\global\let\oldcontentsline\contentsline
\gdef\contentsline#1#2#3#4{\oldcontentsline{#1}{#2}{#3}}
\global\let\oldnewlabel\newlabel
\gdef\newlabel#1#2{\newlabelxx{#1}#2}
\gdef\newlabelxx#1#2#3#4#5#6{\oldnewlabel{#1}{{#2}{#3}}}
\AtEndDocument{\ifx\hyper@anchor\@undefined
\let\contentsline\oldcontentsline
\let\newlabel\oldnewlabel
\fi}
\fi}
\global\let\hyper@last\relax 
\gdef\HyperFirstAtBeginDocument#1{#1}
\providecommand\HyField@AuxAddToFields[1]{}
\providecommand\HyField@AuxAddToCoFields[2]{}
\providecommand\@newglossary[4]{}
\@newglossary{main}{glg}{gls}{glo}
\@newglossary{acronym}{alg}{acr}{acn}
\providecommand\@glsorder[1]{}
\providecommand\@istfilename[1]{}
\@istfilename{IAC-21,C1,7,4,x64187.ist}
\@glsorder{word}
\@writefile{toc}{\contentsline {section}{\numberline {1}Introduction}{2}{section.1}\protected@file@percent }
\@writefile{toc}{\contentsline {section}{\numberline {2}Reference Trajectories Generation}{2}{section.2}\protected@file@percent }
\@writefile{toc}{\contentsline {subsection}{\numberline {2.1}The Circular Restricted 3 Body Problem}{2}{subsection.2.1}\protected@file@percent }
\@writefile{lof}{\contentsline {figure}{\numberline {1}{\ignorespaces The Planar Restricted Three-Body Problem.\relax }}{2}{figure.caption.2}\protected@file@percent }
\providecommand*\caption@xref[2]{\@setref\relax\@undefined{#1}}
\newlabel{FIG_cr3bp}{{1}{2}{The Planar Restricted Three-Body Problem.\relax }{figure.caption.2}{}}
\citation{Acton2018,Folkner2014}
\citation{Acton2018,Folkner2014}
\citation{GutierrezRamon2020a}
\citation{Koon2011}
\citation{Leiva2006}
\newlabel{EQ_eom}{{1}{3}{The Circular Restricted 3 Body Problem}{equation.2.1}{}}
\newlabel{EQ_eom_omega}{{2}{3}{The Circular Restricted 3 Body Problem}{equation.2.2}{}}
\newlabel{EQ_eom_adimdistances}{{3}{3}{The Circular Restricted 3 Body Problem}{equation.2.3}{}}
\newlabel{EQ_eom_jacobi}{{4}{3}{The Circular Restricted 3 Body Problem}{equation.2.4}{}}
\@writefile{lot}{\contentsline {table}{\numberline {1}{\ignorespaces Parameters of the Earth-Moon System used in this research. Retrieved from SPICE\cite  {Acton2018, Folkner2014}\relax }}{3}{table.caption.3}\protected@file@percent }
\newlabel{TAB_systemparameters}{{1}{3}{Parameters of the Earth-Moon System used in this research. Retrieved from SPICE\cite {Acton2018, Folkner2014}\relax }{table.caption.3}{}}
\@writefile{toc}{\contentsline {subsection}{\numberline {2.2}Trajectory Design Algorithms}{3}{subsection.2.2}\protected@file@percent }
\@writefile{toc}{\contentsline {subsubsection}{\numberline {2.2.1}Differential Correction}{3}{subsubsection.2.2.1}\protected@file@percent }
\newlabel{EQ_singshooting_stm}{{5}{3}{Differential Correction}{equation.2.5}{}}
\newlabel{EQ_singshooting_stmpropagated}{{6}{3}{Differential Correction}{equation.2.6}{}}
\newlabel{EQ_singshooting_final}{{7}{3}{Differential Correction}{equation.2.7}{}}
\citation{Robin1980,GutierrezRamon2020a}
\bibstyle{AAS_publication}
\bibdata{astroMLBib}
\bibcite{Acton2018}{1}
\bibcite{Folkner2014}{2}
\bibcite{GutierrezRamon2020a}{3}
\@writefile{toc}{\contentsline {subsubsection}{\numberline {2.2.2}Numerical Continuation for Families Generation}{4}{subsubsection.2.2.2}\protected@file@percent }
\newlabel{EQ_deltasPredictor}{{8}{4}{Numerical Continuation for Families Generation}{equation.2.8}{}}
\newlabel{EQ_predictorAlgorithm}{{9}{4}{Numerical Continuation for Families Generation}{equation.2.9}{}}
\@writefile{toc}{\contentsline {section}{\numberline {3}Neural Networks Definitions}{4}{section.3}\protected@file@percent }
\@writefile{toc}{\contentsline {subsection}{\numberline {3.1}Echo State Network}{4}{subsection.3.1}\protected@file@percent }
\@writefile{toc}{\contentsline {subsection}{\numberline {3.2}Long Short-Term Memory Scheme}{4}{subsection.3.2}\protected@file@percent }
\@writefile{toc}{\contentsline {subsection}{\numberline {3.3}Hybrid Neural Networks}{4}{subsection.3.3}\protected@file@percent }
\@writefile{toc}{\contentsline {section}{\numberline {4}Neural Networks Training and Validation}{4}{section.4}\protected@file@percent }
\@writefile{toc}{\contentsline {section}{\numberline {5}NN-based Trajectory Generation Benchmark}{4}{section.5}\protected@file@percent }
\@writefile{toc}{\contentsline {section}{\numberline {6}Results and Discussion}{4}{section.6}\protected@file@percent }
\@writefile{toc}{\contentsline {section}{\numberline {7}Conclusions}{4}{section.7}\protected@file@percent }
\bibcite{Koon2011}{4}
\bibcite{Leiva2006}{5}
\bibcite{Robin1980}{6}
\newlabel{LastPage}{{}{5}{}{page.5}{}}
\xdef\lastpage@lastpage{5}
\xdef\lastpage@lastpageHy{5}
\gdef \@abspage@last{5}
